{
  "kind": "books#volumes",
  "totalItems": 484,
  "items": [
    {
      "kind": "books#volume",
      "id": "wVVv5X5QE-EC",
      "etag": "XwxwXQy6j2c",
      "selfLink": "https://www.googleapis.com/books/v1/volumes/wVVv5X5QE-EC",
      "volumeInfo": {
        "title": "Machine Quilting With Alex Anderson",
        "subtitle": "7 Exercises, Projects & Full-Size Quilting Patterns",
        "authors": [
          "Alex Anderson"
        ],
        "publisher": "C&T Publishing Inc",
        "publishedDate": "2010-11-05",
        "description": "Machine Quilting Is a Snap When Alex Shows You How! 7 exercises and 7 projects teach you everything from easy straight-line quilting to stippling to more complex motifs. Create lovely traditional quilts using the full-size quilting patterns. Alex makes it easy, with expert tips and techniques on everything from workspace setup to perfecting the quilting stitch. Who else but Alex could make machine quilting easy enough for all of us, and so much fun we can’t wait to get started? Learn to set up your space, adjust your machine, choose the right supplies, and mark and baste your quilt. And, oh, you’re going to love these gorgeous projects!",
        "industryIdentifiers": [
          {
            "type": "ISBN_13",
            "identifier": "9781607052777"
          },
          {
            "type": "ISBN_10",
            "identifier": "1607052776"
          }
        ],
        "readingModes": {
          "text": false,
          "image": true
        },
        "pageCount": 64,
        "printType": "BOOK",
        "categories": [
          "Crafts & Hobbies"
        ],
        "maturityRating": "NOT_MATURE",
        "allowAnonLogging": true,
        "contentVersion": "0.1.0.0.preview.1",
        "panelizationSummary": {
          "containsEpubBubbles": false,
          "containsImageBubbles": false
        },
        "imageLinks": {
          "smallThumbnail": "http://books.google.com/books/content?id=wVVv5X5QE-EC&printsec=frontcover&img=1&zoom=5&edge=curl&source=gbs_api",
          "thumbnail": "http://books.google.com/books/content?id=wVVv5X5QE-EC&printsec=frontcover&img=1&zoom=1&edge=curl&source=gbs_api"
        },
        "language": "en",
        "previewLink": "http://books.google.co.id/books?id=wVVv5X5QE-EC&printsec=frontcover&dq=quilting&hl=&cd=1&source=gbs_api",
        "infoLink": "http://books.google.co.id/books?id=wVVv5X5QE-EC&dq=quilting&hl=&source=gbs_api",
        "canonicalVolumeLink": "https://books.google.com/books/about/Machine_Quilting_With_Alex_Anderson.html?hl=&id=wVVv5X5QE-EC"
      },
      "saleInfo": {
        "country": "ID",
        "saleability": "NOT_FOR_SALE",
        "isEbook": false
      },
      "accessInfo": {
        "country": "ID",
        "viewability": "PARTIAL",
        "embeddable": true,
        "publicDomain": false,
        "textToSpeechPermission": "ALLOWED",
        "epub": {
          "isAvailable": false
        },
        "pdf": {
          "isAvailable": true,
          "acsTokenLink": "http://books.google.co.id/books/download/Machine_Quilting_With_Alex_Anderson-sample-pdf.acsm?id=wVVv5X5QE-EC&format=pdf&output=acs4_fulfillment_token&dl_type=sample&source=gbs_api"
        },
        "webReaderLink": "http://play.google.com/books/reader?id=wVVv5X5QE-EC&hl=&printsec=frontcover&source=gbs_api",
        "accessViewStatus": "SAMPLE",
        "quoteSharingAllowed": false
      },
      "searchInfo": {
        "textSnippet": "Machine Quilting Is a Snap When Alex Shows You How! 7 exercises and 7 projects teach you everything from easy straight-line quilting to stippling to more complex motifs."
      }
    },
    {
      "kind": "books#volume",
      "id": "PxpKZ8DBntkC",
      "etag": "mgGiMj+AQzk",
      "selfLink": "https://www.googleapis.com/books/v1/volumes/PxpKZ8DBntkC",
      "volumeInfo": {
        "title": "Pat Sloan's I Can't Believe I'm Quilting, Beyond the Basics",
        "authors": [
          "Pat Sloan"
        ],
        "publisher": "Leisure Arts",
        "publishedDate": "2008-02-01",
        "description": "Ready to take your quilting skills to the next level and spark your creativity? Pat Sloan is the perfect guide in this book designed for quilters who have mastered the basics and are ready to explore new techniques. The popular designer and teacher introduces you to her easy methods for making Flying Geese, how to speed the quilt-making process with Chain Piecing, and the secrets to perfect Curved Piecing. You will also experience the fun of Paper-Piecing, give your quilt a different look by setting Blocks on Point, and much more! Each technique is presented in lesson form with a quick-to-finish companion project. To teach yourself basic quilting, see Pat Sloan's I Can't Believe I'm Quilting, Beginner's Complete Guide (#3649). Pat Sloan's I Can't Believe I'm Quilting Beyond Basics (Leisure Arts #4430)",
        "industryIdentifiers": [
          {
            "type": "ISBN_13",
            "identifier": "9781601406828"
          },
          {
            "type": "ISBN_10",
            "identifier": "1601406827"
          }
        ],
        "readingModes": {
          "text": false,
          "image": true
        },
        "pageCount": 61,
        "printType": "BOOK",
        "categories": [
          "Crafts & Hobbies"
        ],
        "maturityRating": "NOT_MATURE",
        "allowAnonLogging": false,
        "contentVersion": "1.12.3.0.preview.1",
        "imageLinks": {
          "smallThumbnail": "http://books.google.com/books/content?id=PxpKZ8DBntkC&printsec=frontcover&img=1&zoom=5&edge=curl&source=gbs_api",
          "thumbnail": "http://books.google.com/books/content?id=PxpKZ8DBntkC&printsec=frontcover&img=1&zoom=1&edge=curl&source=gbs_api"
        },
        "language": "en",
        "previewLink": "http://books.google.co.id/books?id=PxpKZ8DBntkC&printsec=frontcover&dq=quilting&hl=&cd=2&source=gbs_api",
        "infoLink": "http://books.google.co.id/books?id=PxpKZ8DBntkC&dq=quilting&hl=&source=gbs_api",
        "canonicalVolumeLink": "https://books.google.com/books/about/Pat_Sloan_s_I_Can_t_Believe_I_m_Quilting.html?hl=&id=PxpKZ8DBntkC"
      },
      "saleInfo": {
        "country": "ID",
        "saleability": "NOT_FOR_SALE",
        "isEbook": false
      },
      "accessInfo": {
        "country": "ID",
        "viewability": "PARTIAL",
        "embeddable": true,
        "publicDomain": false,
        "textToSpeechPermission": "ALLOWED",
        "epub": {
          "isAvailable": false
        },
        "pdf": {
          "isAvailable": false
        },
        "webReaderLink": "http://play.google.com/books/reader?id=PxpKZ8DBntkC&hl=&printsec=frontcover&source=gbs_api",
        "accessViewStatus": "SAMPLE",
        "quoteSharingAllowed": false
      },
      "searchInfo": {
        "textSnippet": "Ready to take your quilting skills to the next level and spark your creativity? Pat Sloan is the perfect guide in this book designed for quilters who have mastered the basics and are ready to explore new techniques."
      }
    },
    {
      "kind": "books#volume",
      "id": "heFRCwAAQBAJ",
      "etag": "a729o7vNM50",
      "selfLink": "https://www.googleapis.com/books/v1/volumes/heFRCwAAQBAJ",
      "volumeInfo": {
        "title": "Amish Quilting Patterns",
        "authors": [
          "Gwen Marston",
          "Joe Cunningham"
        ],
        "publisher": "Courier Corporation",
        "publishedDate": "1987",
        "description": "Briefly describes the history of Amish quilts, explains how to make and use patterns, and provides a selection of traditional quilting designs",
        "industryIdentifiers": [
          {
            "type": "ISBN_13",
            "identifier": "9780486253268"
          },
          {
            "type": "ISBN_10",
            "identifier": "0486253260"
          }
        ],
        "readingModes": {
          "text": false,
          "image": true
        },
        "pageCount": 12,
        "printType": "BOOK",
        "categories": [
          "Crafts & Hobbies"
        ],
        "maturityRating": "NOT_MATURE",
        "allowAnonLogging": false,
        "contentVersion": "1.4.1.0.preview.1",
        "panelizationSummary": {
          "containsEpubBubbles": false,
          "containsImageBubbles": false
        },
        "imageLinks": {
          "smallThumbnail": "http://books.google.com/books/content?id=heFRCwAAQBAJ&printsec=frontcover&img=1&zoom=5&edge=curl&source=gbs_api",
          "thumbnail": "http://books.google.com/books/content?id=heFRCwAAQBAJ&printsec=frontcover&img=1&zoom=1&edge=curl&source=gbs_api"
        },
        "language": "en",
        "previewLink": "http://books.google.co.id/books?id=heFRCwAAQBAJ&printsec=frontcover&dq=quilting&hl=&cd=3&source=gbs_api",
        "infoLink": "http://books.google.co.id/books?id=heFRCwAAQBAJ&dq=quilting&hl=&source=gbs_api",
        "canonicalVolumeLink": "https://books.google.com/books/about/Amish_Quilting_Patterns.html?hl=&id=heFRCwAAQBAJ"
      },
      "saleInfo": {
        "country": "ID",
        "saleability": "NOT_FOR_SALE",
        "isEbook": false
      },
      "accessInfo": {
        "country": "ID",
        "viewability": "PARTIAL",
        "embeddable": true,
        "publicDomain": false,
        "textToSpeechPermission": "ALLOWED",
        "epub": {
          "isAvailable": false
        },
        "pdf": {
          "isAvailable": false
        },
        "webReaderLink": "http://play.google.com/books/reader?id=heFRCwAAQBAJ&hl=&printsec=frontcover&source=gbs_api",
        "accessViewStatus": "SAMPLE",
        "quoteSharingAllowed": false
      },
      "searchInfo": {
        "textSnippet": "Briefly describes the history of Amish quilts, explains how to make and use patterns, and provides a selection of traditional quilting designs"
      }
    },
    {
      "kind": "books#volume",
      "id": "NWGhT0uCbRAC",
      "etag": "PEnRYxVXO5o",
      "selfLink": "https://www.googleapis.com/books/v1/volumes/NWGhT0uCbRAC",
      "volumeInfo": {
        "title": "Creative Quilting with Beads",
        "subtitle": "Bags, Aprons, Mini-quilts & More",
        "authors": [
          "Valerie Van Arsdale Shrader"
        ],
        "publisher": "Lark Books",
        "publishedDate": "2008",
        "description": "Quilters have moved beyond the traditional boundaries of their art, embellishing their work with layers of beads, embroidery, and surface design. They—as well as other fiber artists and sewers—will warmly welcome this idea-packed resource with 24 projects that will open up a new realm of creative potential. The illustrated basics section covers a variety of ways to affix beads to textiles; a quilting primer is included, too, as a helpful refresher. But most of all, stitchers will enjoy experimenting with the featured techniques and making a retro-chic throw pillow, fabric greeting card with appliquéd flowers and seed beads, and miniature wall quilt of a stylized bird.",
        "industryIdentifiers": [
          {
            "type": "ISBN_10",
            "identifier": "160059087X"
          },
          {
            "type": "ISBN_13",
            "identifier": "9781600590870"
          }
        ],
        "readingModes": {
          "text": false,
          "image": true
        },
        "pageCount": 128,
        "printType": "BOOK",
        "categories": [
          "Crafts & Hobbies"
        ],
        "maturityRating": "NOT_MATURE",
        "allowAnonLogging": false,
        "contentVersion": "0.0.1.0.preview.1",
        "imageLinks": {
          "smallThumbnail": "http://books.google.com/books/content?id=NWGhT0uCbRAC&printsec=frontcover&img=1&zoom=5&edge=curl&source=gbs_api",
          "thumbnail": "http://books.google.com/books/content?id=NWGhT0uCbRAC&printsec=frontcover&img=1&zoom=1&edge=curl&source=gbs_api"
        },
        "language": "en",
        "previewLink": "http://books.google.co.id/books?id=NWGhT0uCbRAC&printsec=frontcover&dq=quilting&hl=&cd=4&source=gbs_api",
        "infoLink": "http://books.google.co.id/books?id=NWGhT0uCbRAC&dq=quilting&hl=&source=gbs_api",
        "canonicalVolumeLink": "https://books.google.com/books/about/Creative_Quilting_with_Beads.html?hl=&id=NWGhT0uCbRAC"
      },
      "saleInfo": {
        "country": "ID",
        "saleability": "NOT_FOR_SALE",
        "isEbook": false
      },
      "accessInfo": {
        "country": "ID",
        "viewability": "PARTIAL",
        "embeddable": true,
        "publicDomain": false,
        "textToSpeechPermission": "ALLOWED",
        "epub": {
          "isAvailable": false
        },
        "pdf": {
          "isAvailable": false
        },
        "webReaderLink": "http://play.google.com/books/reader?id=NWGhT0uCbRAC&hl=&printsec=frontcover&source=gbs_api",
        "accessViewStatus": "SAMPLE",
        "quoteSharingAllowed": false
      },
      "searchInfo": {
        "textSnippet": "Quilters have moved beyond the traditional boundaries of their art, embellishing their work with layers of beads, embroidery, and surface design."
      }
    },
    {
      "kind": "books#volume",
      "id": "-g_sdDwFl7MC",
      "etag": "uisp9n2nnPo",
      "selfLink": "https://www.googleapis.com/books/v1/volumes/-g_sdDwFl7MC",
      "volumeInfo": {
        "title": "Quilting",
        "authors": [
          "Mary Jo Hiney"
        ],
        "publisher": "Sterling Publishing Company, Inc.",
        "publishedDate": "2005",
        "description": "Mary Jo Hiney presents a brilliantly creative collection for the quilter on the go. All the projects are ideal to do anywhere, and they transform traditional styles with contemporary touches such as beading, embroidery and strong graphics. Projects range from a silk case for a mobile phone, to a small rope handled handbag - simple yet gorgeous.",
        "industryIdentifiers": [
          {
            "type": "ISBN_10",
            "identifier": "1402718748"
          },
          {
            "type": "ISBN_13",
            "identifier": "9781402718748"
          }
        ],
        "readingModes": {
          "text": false,
          "image": true
        },
        "pageCount": 96,
        "printType": "BOOK",
        "categories": [
          "Crafts & Hobbies"
        ],
        "maturityRating": "NOT_MATURE",
        "allowAnonLogging": false,
        "contentVersion": "1.1.1.0.preview.1",
        "imageLinks": {
          "smallThumbnail": "http://books.google.com/books/content?id=-g_sdDwFl7MC&printsec=frontcover&img=1&zoom=5&edge=curl&source=gbs_api",
          "thumbnail": "http://books.google.com/books/content?id=-g_sdDwFl7MC&printsec=frontcover&img=1&zoom=1&edge=curl&source=gbs_api"
        },
        "language": "en",
        "previewLink": "http://books.google.co.id/books?id=-g_sdDwFl7MC&printsec=frontcover&dq=quilting&hl=&cd=5&source=gbs_api",
        "infoLink": "http://books.google.co.id/books?id=-g_sdDwFl7MC&dq=quilting&hl=&source=gbs_api",
        "canonicalVolumeLink": "https://books.google.com/books/about/Quilting.html?hl=&id=-g_sdDwFl7MC"
      },
      "saleInfo": {
        "country": "ID",
        "saleability": "NOT_FOR_SALE",
        "isEbook": false
      },
      "accessInfo": {
        "country": "ID",
        "viewability": "PARTIAL",
        "embeddable": true,
        "publicDomain": false,
        "textToSpeechPermission": "ALLOWED",
        "epub": {
          "isAvailable": false
        },
        "pdf": {
          "isAvailable": false
        },
        "webReaderLink": "http://play.google.com/books/reader?id=-g_sdDwFl7MC&hl=&printsec=frontcover&source=gbs_api",
        "accessViewStatus": "SAMPLE",
        "quoteSharingAllowed": false
      },
      "searchInfo": {
        "textSnippet": "Mary Jo Hiney, the prolific and popular author of such books as Quiltagami and Sewing for the First Time , creates a brilliantly creative collection for the quilter on the go."
      }
    },
    {
      "kind": "books#volume",
      "id": "HBbKuTAhWMsC",
      "etag": "vo5KExqdS7U",
      "selfLink": "https://www.googleapis.com/books/v1/volumes/HBbKuTAhWMsC",
      "volumeInfo": {
        "title": "Surface Applique for Quilting",
        "authors": [
          "Susan M. Cottrell"
        ],
        "publisher": "Sterling Publishing Company, Inc.",
        "publishedDate": "2005",
        "description": "Quilters already know that appliqué is one of the simplest yet most rewarding ways to decorate cloth. What they're about to learn is how to blend into their quilt projects just about anything from their collections of threads, yarns, cords, and wool, along with their beads, buttons, and trinkets of every shape and size. Among the 25 projects featured here: Four Seasons Wall Hanging, Ginko Leaf Table Runner, Fish Pillow, Quilt Block Tote Bag, Nine Patch Heart Panel, Bird Purse, Holiday Chair Cover, and Snuggly Fall Blanket. Patterns, instructions, illustrations of each step, and color photos of finished projects, cover both machine and hand sewing. Playful tips suggest ways to mix designs among all your projects.",
        "industryIdentifiers": [
          {
            "type": "ISBN_10",
            "identifier": "1402720017"
          },
          {
            "type": "ISBN_13",
            "identifier": "9781402720017"
          }
        ],
        "readingModes": {
          "text": false,
          "image": true
        },
        "pageCount": 128,
        "printType": "BOOK",
        "categories": [
          "Crafts & Hobbies"
        ],
        "maturityRating": "NOT_MATURE",
        "allowAnonLogging": false,
        "contentVersion": "1.1.1.0.preview.1",
        "imageLinks": {
          "smallThumbnail": "http://books.google.com/books/content?id=HBbKuTAhWMsC&printsec=frontcover&img=1&zoom=5&edge=curl&source=gbs_api",
          "thumbnail": "http://books.google.com/books/content?id=HBbKuTAhWMsC&printsec=frontcover&img=1&zoom=1&edge=curl&source=gbs_api"
        },
        "language": "en",
        "previewLink": "http://books.google.co.id/books?id=HBbKuTAhWMsC&printsec=frontcover&dq=quilting&hl=&cd=6&source=gbs_api",
        "infoLink": "http://books.google.co.id/books?id=HBbKuTAhWMsC&dq=quilting&hl=&source=gbs_api",
        "canonicalVolumeLink": "https://books.google.com/books/about/Surface_Applique_for_Quilting.html?hl=&id=HBbKuTAhWMsC"
      },
      "saleInfo": {
        "country": "ID",
        "saleability": "NOT_FOR_SALE",
        "isEbook": false
      },
      "accessInfo": {
        "country": "ID",
        "viewability": "PARTIAL",
        "embeddable": true,
        "publicDomain": false,
        "textToSpeechPermission": "ALLOWED",
        "epub": {
          "isAvailable": false
        },
        "pdf": {
          "isAvailable": false
        },
        "webReaderLink": "http://play.google.com/books/reader?id=HBbKuTAhWMsC&hl=&printsec=frontcover&source=gbs_api",
        "accessViewStatus": "SAMPLE",
        "quoteSharingAllowed": false
      },
      "searchInfo": {
        "textSnippet": "Quilters already know that appliqu  is one of the simplest yet most rewarding ways to decorate cloth."
      }
    },
    {
      "kind": "books#volume",
      "id": "l55rjMS6e8wC",
      "etag": "FbLAm9WsmSw",
      "selfLink": "https://www.googleapis.com/books/v1/volumes/l55rjMS6e8wC",
      "volumeInfo": {
        "title": "Mastering the Art of Longarm Quilting",
        "subtitle": "40 Original Designs • Step-by-Step Instructions • Takes You from Novice to Expert",
        "authors": [
          "Gina Perkes"
        ],
        "publisher": "C&T Publishing Inc",
        "publishedDate": "2012-02-01",
        "description": "This essential guide to using a longarm machine includes easy-to-follow instructions to get you well on the way to mastery! In addition to marking tips and thread selection, you’ll also find detailed direction on planning and executing designs. Plus, the gallery section provides a treasure trove of inspiration! Featuring 40 original quilting designs, there’s something for both traditional and modern quilters at all skill levels.",
        "industryIdentifiers": [
          {
            "type": "ISBN_13",
            "identifier": "9781607054115"
          },
          {
            "type": "ISBN_10",
            "identifier": "1607054116"
          }
        ],
        "readingModes": {
          "text": true,
          "image": true
        },
        "pageCount": 128,
        "printType": "BOOK",
        "categories": [
          "Crafts & Hobbies"
        ],
        "maturityRating": "NOT_MATURE",
        "allowAnonLogging": true,
        "contentVersion": "0.4.4.0.preview.3",
        "panelizationSummary": {
          "containsEpubBubbles": false,
          "containsImageBubbles": false
        },
        "imageLinks": {
          "smallThumbnail": "http://books.google.com/books/content?id=l55rjMS6e8wC&printsec=frontcover&img=1&zoom=5&edge=curl&source=gbs_api",
          "thumbnail": "http://books.google.com/books/content?id=l55rjMS6e8wC&printsec=frontcover&img=1&zoom=1&edge=curl&source=gbs_api"
        },
        "language": "en",
        "previewLink": "http://books.google.co.id/books?id=l55rjMS6e8wC&printsec=frontcover&dq=quilting&hl=&cd=7&source=gbs_api",
        "infoLink": "http://books.google.co.id/books?id=l55rjMS6e8wC&dq=quilting&hl=&source=gbs_api",
        "canonicalVolumeLink": "https://books.google.com/books/about/Mastering_the_Art_of_Longarm_Quilting.html?hl=&id=l55rjMS6e8wC"
      },
      "saleInfo": {
        "country": "ID",
        "saleability": "NOT_FOR_SALE",
        "isEbook": false
      },
      "accessInfo": {
        "country": "ID",
        "viewability": "PARTIAL",
        "embeddable": true,
        "publicDomain": false,
        "textToSpeechPermission": "ALLOWED",
        "epub": {
          "isAvailable": true,
          "acsTokenLink": "http://books.google.co.id/books/download/Mastering_the_Art_of_Longarm_Quilting-sample-epub.acsm?id=l55rjMS6e8wC&format=epub&output=acs4_fulfillment_token&dl_type=sample&source=gbs_api"
        },
        "pdf": {
          "isAvailable": true,
          "acsTokenLink": "http://books.google.co.id/books/download/Mastering_the_Art_of_Longarm_Quilting-sample-pdf.acsm?id=l55rjMS6e8wC&format=pdf&output=acs4_fulfillment_token&dl_type=sample&source=gbs_api"
        },
        "webReaderLink": "http://play.google.com/books/reader?id=l55rjMS6e8wC&hl=&printsec=frontcover&source=gbs_api",
        "accessViewStatus": "SAMPLE",
        "quoteSharingAllowed": false
      },
      "searchInfo": {
        "textSnippet": "This essential guide to using a longarm machine includes easy-to-follow instructions to get you well on the way to mastery!"
      }
    },
    {
      "kind": "books#volume",
      "id": "987S7hPg8sQC",
      "etag": "ZCzE2mcESQE",
      "selfLink": "https://www.googleapis.com/books/v1/volumes/987S7hPg8sQC",
      "volumeInfo": {
        "title": "Country quilting",
        "authors": [
          "Better Homes and Gardens"
        ],
        "publisher": "Meredith Books",
        "publishedDate": "1992-03",
        "description": "Provides instructions and patterns for making quilts and quilted table runners, sewing machine covers, wall hangings, place mats, and pillows",
        "industryIdentifiers": [
          {
            "type": "ISBN_10",
            "identifier": "0696023520"
          },
          {
            "type": "ISBN_13",
            "identifier": "9780696023521"
          }
        ],
        "readingModes": {
          "text": false,
          "image": false
        },
        "pageCount": 80,
        "printType": "BOOK",
        "categories": [
          "Crafts & Hobbies"
        ],
        "maturityRating": "NOT_MATURE",
        "allowAnonLogging": false,
        "contentVersion": "preview-1.0.0",
        "imageLinks": {
          "smallThumbnail": "http://books.google.com/books/content?id=987S7hPg8sQC&printsec=frontcover&img=1&zoom=5&source=gbs_api",
          "thumbnail": "http://books.google.com/books/content?id=987S7hPg8sQC&printsec=frontcover&img=1&zoom=1&source=gbs_api"
        },
        "language": "en",
        "previewLink": "http://books.google.co.id/books?id=987S7hPg8sQC&q=quilting&dq=quilting&hl=&cd=8&source=gbs_api",
        "infoLink": "http://books.google.co.id/books?id=987S7hPg8sQC&dq=quilting&hl=&source=gbs_api",
        "canonicalVolumeLink": "https://books.google.com/books/about/Country_quilting.html?hl=&id=987S7hPg8sQC"
      },
      "saleInfo": {
        "country": "ID",
        "saleability": "NOT_FOR_SALE",
        "isEbook": false
      },
      "accessInfo": {
        "country": "ID",
        "viewability": "NO_PAGES",
        "embeddable": false,
        "publicDomain": false,
        "textToSpeechPermission": "ALLOWED",
        "epub": {
          "isAvailable": false
        },
        "pdf": {
          "isAvailable": false
        },
        "webReaderLink": "http://play.google.com/books/reader?id=987S7hPg8sQC&hl=&printsec=frontcover&source=gbs_api",
        "accessViewStatus": "NONE",
        "quoteSharingAllowed": false
      },
      "searchInfo": {
        "textSnippet": "Provides instructions and patterns for making quilts and quilted table runners, sewing machine covers, wall hangings, place mats, and pillows"
      }
    },
    {
      "kind": "books#volume",
      "id": "PyPWxkmifJQC",
      "etag": "FxO9LfBE6iU",
      "selfLink": "https://www.googleapis.com/books/v1/volumes/PyPWxkmifJQC",
      "volumeInfo": {
        "title": "Pat Sloan's I Can't Believe I'm Quilting",
        "authors": [
          "Pat Sloan"
        ],
        "publisher": "Leisure Arts",
        "publishedDate": "2004-01",
        "description": "In this introduction to quilting, Pat Sloan provides a complete overview for the beginning quilter. She explains quilting terms, preparing fabrics, cutting, pressing and piece, machine quilting, and finishing.",
        "industryIdentifiers": [
          {
            "type": "ISBN_13",
            "identifier": "9781574866292"
          },
          {
            "type": "ISBN_10",
            "identifier": "157486629X"
          }
        ],
        "readingModes": {
          "text": false,
          "image": true
        },
        "pageCount": 56,
        "printType": "BOOK",
        "categories": [
          "Crafts & Hobbies"
        ],
        "maturityRating": "NOT_MATURE",
        "allowAnonLogging": false,
        "contentVersion": "0.1.0.0.preview.1",
        "imageLinks": {
          "smallThumbnail": "http://books.google.com/books/content?id=PyPWxkmifJQC&printsec=frontcover&img=1&zoom=5&edge=curl&source=gbs_api",
          "thumbnail": "http://books.google.com/books/content?id=PyPWxkmifJQC&printsec=frontcover&img=1&zoom=1&edge=curl&source=gbs_api"
        },
        "language": "en",
        "previewLink": "http://books.google.co.id/books?id=PyPWxkmifJQC&printsec=frontcover&dq=quilting&hl=&cd=9&source=gbs_api",
        "infoLink": "http://books.google.co.id/books?id=PyPWxkmifJQC&dq=quilting&hl=&source=gbs_api",
        "canonicalVolumeLink": "https://books.google.com/books/about/Pat_Sloan_s_I_Can_t_Believe_I_m_Quilting.html?hl=&id=PyPWxkmifJQC"
      },
      "saleInfo": {
        "country": "ID",
        "saleability": "NOT_FOR_SALE",
        "isEbook": false
      },
      "accessInfo": {
        "country": "ID",
        "viewability": "PARTIAL",
        "embeddable": true,
        "publicDomain": false,
        "textToSpeechPermission": "ALLOWED",
        "epub": {
          "isAvailable": false
        },
        "pdf": {
          "isAvailable": false
        },
        "webReaderLink": "http://play.google.com/books/reader?id=PyPWxkmifJQC&hl=&printsec=frontcover&source=gbs_api",
        "accessViewStatus": "SAMPLE",
        "quoteSharingAllowed": false
      },
      "searchInfo": {
        "textSnippet": "In this introduction to quilting, Pat Sloan provides a complete overview of traditional and quick-method quilting for the beginner."
      }
    },
    {
      "kind": "books#volume",
      "id": "BdoSnRE9b8wC",
      "etag": "kOfBMqf+j3k",
      "selfLink": "https://www.googleapis.com/books/v1/volumes/BdoSnRE9b8wC",
      "volumeInfo": {
        "title": "Quilting",
        "authors": [
          "Laurie Swim"
        ],
        "publisher": "Bdd Promotional Book Company",
        "publishedDate": "1991",
        "description": "Offers instructions, helpful hints, and sources of supplies and tools for designing, making, and displaying original and contemporary patchwork and applique quilts",
        "industryIdentifiers": [
          {
            "type": "ISBN_10",
            "identifier": "0792452984"
          },
          {
            "type": "ISBN_13",
            "identifier": "9780792452980"
          }
        ],
        "readingModes": {
          "text": false,
          "image": false
        },
        "pageCount": 128,
        "printType": "BOOK",
        "categories": [
          "Crafts & Hobbies"
        ],
        "maturityRating": "NOT_MATURE",
        "allowAnonLogging": false,
        "contentVersion": "preview-1.0.0",
        "imageLinks": {
          "smallThumbnail": "http://books.google.com/books/content?id=BdoSnRE9b8wC&printsec=frontcover&img=1&zoom=5&source=gbs_api",
          "thumbnail": "http://books.google.com/books/content?id=BdoSnRE9b8wC&printsec=frontcover&img=1&zoom=1&source=gbs_api"
        },
        "language": "en",
        "previewLink": "http://books.google.co.id/books?id=BdoSnRE9b8wC&q=quilting&dq=quilting&hl=&cd=10&source=gbs_api",
        "infoLink": "http://books.google.co.id/books?id=BdoSnRE9b8wC&dq=quilting&hl=&source=gbs_api",
        "canonicalVolumeLink": "https://books.google.com/books/about/Quilting.html?hl=&id=BdoSnRE9b8wC"
      },
      "saleInfo": {
        "country": "ID",
        "saleability": "NOT_FOR_SALE",
        "isEbook": false
      },
      "accessInfo": {
        "country": "ID",
        "viewability": "NO_PAGES",
        "embeddable": false,
        "publicDomain": false,
        "textToSpeechPermission": "ALLOWED",
        "epub": {
          "isAvailable": false
        },
        "pdf": {
          "isAvailable": false
        },
        "webReaderLink": "http://play.google.com/books/reader?id=BdoSnRE9b8wC&hl=&printsec=frontcover&source=gbs_api",
        "accessViewStatus": "NONE",
        "quoteSharingAllowed": false
      },
      "searchInfo": {
        "textSnippet": "Offers instructions, helpful hints, and sources of supplies and tools for designing, making, and displaying original and contemporary patchwork and applique quilts"
      }
    }
  ]
}